CA,Materiel,Cat_Classe_Designation,Annee_RefT,Region_Proprietaire,Agence_Gerante,Nb_Jours_VLG,tx_rota,Statut
10451.46,Mat - 108908,057-0005 - MINIPELLE 3.5T,2018,68,6801,252,0.44841269841269843,A
7731.1,Mat - 108908,057-0005 - MINIPELLE 3.5T,2019,68,6801,251,0.29482071713147412,A
14228.2,Mat - 108908,057-0005 - MINIPELLE 3.5T,2020,68,6801,254,0.66535433070866146,A
13429.96,Mat - 108908,057-0005 - MINIPELLE 3.5T,2021,68,6801,255,0.54509803921568623,A
13733.62,Mat - 108908,057-0005 - MINIPELLE 3.5T,2022,68,6801,254,0.49606299212598426,A
20383.94,Mat - 12326,057-0007 - MINIPELLE 5T À 6T,2018,68,3247,252,0.66269841269841268,A
17160.5,Mat - 12326,057-0007 - MINIPELLE 5T À 6T,2019,68,3247,251,0.52988047808764938,A
16587.67,Mat - 12326,057-0007 - MINIPELLE 5T À 6T,2020,68,3247,254,0.57874015748031493,A
19773.45,Mat - 12326,057-0007 - MINIPELLE 5T À 6T,2021,68,3247,255,0.61960784313725492,A
5165.91,Mat - 12326,057-0007 - MINIPELLE 5T À 6T,2022,68,3247,254,0.14960629921259844,A
15089.65,Mat - 136394,057-0007 - MINIPELLE 5T À 6T,2018,68,6801,252,0.49603174603174605,A
8680.2,Mat - 136394,057-0007 - MINIPELLE 5T À 6T,2019,68,6801,251,0.38247011952191234,A
14634.45,Mat - 136394,057-0007 - MINIPELLE 5T À 6T,2020,68,6801,254,0.49212598425196852,A
14981.33,Mat - 136394,057-0007 - MINIPELLE 5T À 6T,2021,68,6801,255,0.403921568627451,A
4557.0,Mat - 136394,057-0007 - MINIPELLE 5T À 6T,2022,68,6801,254,0.28346456692913385,A
24358.8,Mat - 136419,057-0008 - MINIPELLE 7.5T À 8.5T,2018,68,1129,252,0.52380952380952384,A
18095.35,Mat - 136419,057-0008 - MINIPELLE 7.5T À 8.5T,2019,68,1129,251,0.35458167330677293,A
8579.95,Mat - 136419,057-0008 - MINIPELLE 7.5T À 8.5T,2020,68,1129,254,0.21653543307086615,A
16475.0,Mat - 136419,057-0008 - MINIPELLE 7.5T À 8.5T,2021,68,1129,255,0.42352941176470588,A
15703.93,Mat - 136419,057-0008 - MINIPELLE 7.5T À 8.5T,2022,68,1129,254,0.36220472440944884,A
21974.7,Mat - 142913,049-0017 - NACELLE 18M SUR VL,2018,68,1120,252,0.753968253968254,A
19461.25,Mat - 142913,049-0017 - NACELLE 18M SUR VL,2019,68,1120,251,0.66932270916334657,A
12606.41,Mat - 142913,049-0017 - NACELLE 18M SUR VL,2020,68,1120,240,0.30833333333333335,A
27503.85,Mat - 142913,049-0017 - NACELLE 18M SUR VL,2021,68,1120,255,0.60784313725490191,A
8812.09,Mat - 142913,049-0017 - NACELLE 18M SUR VL,2022,68,1120,254,0.40157480314960631,A
14068.55,Mat - 162701,057-0007 - MINIPELLE 5T À 6T,2018,68,7357,252,0.49206349206349204,A
17956.4,Mat - 162701,057-0007 - MINIPELLE 5T À 6T,2019,68,7357,251,0.50597609561752988,A
12136.77,Mat - 162701,057-0007 - MINIPELLE 5T À 6T,2020,68,7357,254,0.49212598425196852,A
6213.61,Mat - 162701,057-0007 - MINIPELLE 5T À 6T,2021,68,7357,255,0.19607843137254902,A
14852.11,Mat - 162701,057-0007 - MINIPELLE 5T À 6T,2022,68,7357,254,0.53937007874015752,A
10505.85,Mat - 151265,057-0002 - MINIPELLE 1.5T,2018,68,730,252,0.48809523809523808,A
9460.87,Mat - 151265,057-0002 - MINIPELLE 1.5T,2019,68,730,251,0.48207171314741037,A
9453.34,Mat - 151265,057-0002 - MINIPELLE 1.5T,2020,68,730,254,0.49606299212598426,A
10796.51,Mat - 151265,057-0002 - MINIPELLE 1.5T,2021,68,730,255,0.56470588235294117,A
11813.1,Mat - 151265,057-0002 - MINIPELLE 1.5T,2022,68,730,254,0.468503937007874,A
6179.41,Mat - 161329,057-0002 - MINIPELLE 1.5T,2018,68,6801,252,0.25793650793650796,A
7719.85,Mat - 161329,057-0002 - MINIPELLE 1.5T,2019,68,6801,251,0.30278884462151395,A
6770.6,Mat - 161329,057-0002 - MINIPELLE 1.5T,2020,68,6801,254,0.29527559055118108,A
8352.9,Mat - 161329,057-0002 - MINIPELLE 1.5T,2021,68,6801,255,0.47058823529411764,A
4679.37,Mat - 161329,057-0002 - MINIPELLE 1.5T,2022,68,6801,254,0.18503937007874016,A
0.0,Mat - 100515,052-0090 - BENNE DE REPRISE POUR CHARIOT,2018,68,7356,252,0.32539682539682541,A
0.0,Mat - 100515,052-0090 - BENNE DE REPRISE POUR CHARIOT,2019,68,7356,251,0.0,A
0.0,Mat - 100515,052-0090 - BENNE DE REPRISE POUR CHARIOT,2020,68,7356,239,0.0,A
0.0,Mat - 100515,052-0090 - BENNE DE REPRISE POUR CHARIOT,2021,68,7356,255,0.0,A
0.0,Mat - 100515,052-0090 - BENNE DE REPRISE POUR CHARIOT,2022,68,7356,241,0.0041493775933609959,A
12337.25,Mat - 146520,049-0041 - NACELLE 16M ARTICULEE DIESEL,2018,68,1144,252,0.49206349206349204,A
11094.49,Mat - 146520,049-0041 - NACELLE 16M ARTICULEE DIESEL,2019,68,1144,251,0.64541832669322707,A
11252.5,Mat - 146520,049-0041 - NACELLE 16M ARTICULEE DIESEL,2020,68,1144,254,0.3346456692913386,A
8802.4,Mat - 146520,049-0041 - NACELLE 16M ARTICULEE DIESEL,2021,68,1144,255,0.60784313725490191,A
5281.89,Mat - 146520,049-0041 - NACELLE 16M ARTICULEE DIESEL,2022,68,1144,254,0.2283464566929134,A
7418.7,Mat - 119144,057-0002 - MINIPELLE 1.5T,2018,68,7011,252,0.30952380952380953,A
5960.65,Mat - 119144,057-0002 - MINIPELLE 1.5T,2019,68,7011,251,0.22310756972111553,A
4137.0,Mat - 119144,057-0002 - MINIPELLE 1.5T,2020,68,7011,254,0.2283464566929134,A
7151.9,Mat - 119144,057-0002 - MINIPELLE 1.5T,2021,68,7011,255,0.28235294117647058,A
5990.99,Mat - 119144,057-0002 - MINIPELLE 1.5T,2022,68,7011,254,0.20866141732283464,A
12698.65,Mat - 166423,057-0004 - MINIPELLE 2.3T A 2.8T,2018,68,1133,252,0.71031746031746035,A
8261.45,Mat - 166423,057-0004 - MINIPELLE 2.3T A 2.8T,2019,68,1133,251,0.49003984063745021,A
8911.92,Mat - 166423,057-0004 - MINIPELLE 2.3T A 2.8T,2020,68,1133,254,0.41732283464566927,A
13317.19,Mat - 166423,057-0004 - MINIPELLE 2.3T A 2.8T,2021,68,1133,255,0.45490196078431372,A
7071.45,Mat - 166423,057-0004 - MINIPELLE 2.3T A 2.8T,2022,68,1133,254,0.2874015748031496,A
14713.74,Mat - 166582,057-0005 - MINIPELLE 3.5T,2018,68,6801,252,0.58333333333333337,A
15717.95,Mat - 166582,057-0005 - MINIPELLE 3.5T,2019,68,6801,251,0.50996015936254979,A
7578.86,Mat - 166582,057-0005 - MINIPELLE 3.5T,2020,68,6801,254,0.34645669291338582,A
7858.2,Mat - 166582,057-0005 - MINIPELLE 3.5T,2021,68,6801,255,0.36078431372549019,A
5137.5,Mat - 166582,057-0005 - MINIPELLE 3.5T,2022,68,6801,254,0.20866141732283464,A
19908.13,Mat - 156226,049-0016 - NACELLE 16M SUR VL,2018,68,6801,252,0.70634920634920639,A
19706.36,Mat - 156226,049-0016 - NACELLE 16M SUR VL,2019,68,6801,251,0.80478087649402386,A
13350.49,Mat - 156226,049-0016 - NACELLE 16M SUR VL,2020,68,6801,254,0.88188976377952755,A
15733.15,Mat - 156226,049-0016 - NACELLE 16M SUR VL,2021,68,6801,255,0.63529411764705879,A
7860.91,Mat - 156226,049-0016 - NACELLE 16M SUR VL,2022,68,6801,254,0.22047244094488189,A
10589.7,Mat - 127412,052-0027 - CHARIOT TELESC. 7M,2018,68,7018,252,0.58333333333333337,A
9822.95,Mat - 127412,052-0027 - CHARIOT TELESC. 7M,2019,68,7018,251,0.43824701195219123,A
8594.0,Mat - 127412,052-0027 - CHARIOT TELESC. 7M,2020,68,7018,254,0.31496062992125984,A
19845.44,Mat - 127412,052-0027 - CHARIOT TELESC. 7M,2021,68,7018,255,1.0588235294117647,A
8773.88,Mat - 127412,052-0027 - CHARIOT TELESC. 7M,2022,68,7018,254,0.27952755905511811,A
13290.3,Mat - 152511,057-0004 - MINIPELLE 2.3T A 2.8T,2018,68,7439,252,0.52777777777777779,A
12931.85,Mat - 152511,057-0004 - MINIPELLE 2.3T A 2.8T,2019,68,7439,251,0.56573705179282874,A
9836.55,Mat - 152511,057-0004 - MINIPELLE 2.3T A 2.8T,2020,68,7439,254,0.421259842519685,A
8771.78,Mat - 152511,057-0004 - MINIPELLE 2.3T A 2.8T,2021,68,7439,255,0.37254901960784315,A
8219.89,Mat - 152511,057-0004 - MINIPELLE 2.3T A 2.8T,2022,68,7439,254,0.37007874015748032,A
9945.6,Mat - 111795,057-0004 - MINIPELLE 2.3T A 2.8T,2018,68,6801,252,0.3611111111111111,A
10793.7,Mat - 111795,057-0004 - MINIPELLE 2.3T A 2.8T,2019,68,6801,251,0.450199203187251,A
8262.5,Mat - 111795,057-0004 - MINIPELLE 2.3T A 2.8T,2020,68,6801,254,0.8110236220472441,A
12309.21,Mat - 111795,057-0004 - MINIPELLE 2.3T A 2.8T,2021,68,6801,255,0.78431372549019607,A
9505.33,Mat - 111795,057-0004 - MINIPELLE 2.3T A 2.8T,2022,68,6801,254,0.42519685039370081,A
12010.91,Mat - 125947,057-0004 - MINIPELLE 2.3T A 2.8T,2018,68,6801,244,0.84426229508196726,A
13558.7,Mat - 125947,057-0004 - MINIPELLE 2.3T A 2.8T,2019,68,6801,251,0.61752988047808766,A
9727.58,Mat - 125947,057-0004 - MINIPELLE 2.3T A 2.8T,2020,68,6801,254,0.46456692913385828,A
7655.48,Mat - 125947,057-0004 - MINIPELLE 2.3T A 2.8T,2021,68,6801,255,0.32549019607843138,A
10339.79,Mat - 125947,057-0004 - MINIPELLE 2.3T A 2.8T,2022,68,6801,254,0.54330708661417326,A
17478.5,Mat - 150630,057-0007 - MINIPELLE 5T À 6T,2018,68,6801,252,0.72619047619047616,A
23111.9,Mat - 150630,057-0007 - MINIPELLE 5T À 6T,2019,68,6801,251,0.71713147410358569,A
18693.73,Mat - 150630,057-0007 - MINIPELLE 5T À 6T,2020,68,6801,254,0.62992125984251968,A
15997.25,Mat - 150630,057-0007 - MINIPELLE 5T À 6T,2021,68,6801,255,0.55686274509803924,A
5750.79,Mat - 150630,057-0007 - MINIPELLE 5T À 6T,2022,68,6801,256,0.21484375,A
243.34,Mat - 104412,052-0090 - BENNE DE REPRISE POUR CHARIOT,2018,68,1131,252,0.32936507936507936,A
22.8,Mat - 104412,052-0090 - BENNE DE REPRISE POUR CHARIOT,2019,68,1131,251,0.20318725099601595,A
312.71,Mat - 104412,052-0090 - BENNE DE REPRISE POUR CHARIOT,2020,68,1131,254,0.94488188976377951,A
203.32,Mat - 104412,052-0090 - BENNE DE REPRISE POUR CHARIOT,2021,68,1131,255,0.8901960784313725,A
205.15,Mat - 104412,052-0090 - BENNE DE REPRISE POUR CHARIOT,2022,68,1131,254,0.25196850393700787,A
275.86,Mat - 111156,052-0090 - BENNE DE REPRISE POUR CHARIOT,2018,68,7356,252,0.30952380952380953,A
386.43,Mat - 111156,052-0090 - BENNE DE REPRISE POUR CHARIOT,2019,68,7356,251,0.75697211155378485,A
0.0,Mat - 111156,052-0090 - BENNE DE REPRISE POUR CHARIOT,2020,68,7356,254,0.610236220472441,A
107.1,Mat - 111156,052-0090 - BENNE DE REPRISE POUR CHARIOT,2021,68,7356,255,0.6588235294117647,A
0.0,Mat - 111156,052-0090 - BENNE DE REPRISE POUR CHARIOT,2022,68,7356,254,0.55905511811023623,A
0.0,Mat - 111157,052-0090 - BENNE DE REPRISE POUR CHARIOT,2018,68,1174,252,0.78968253968253965,A
21.5,Mat - 111157,052-0090 - BENNE DE REPRISE POUR CHARIOT,2019,68,1174,251,0.33067729083665337,A
566.4,Mat - 111157,052-0090 - BENNE DE REPRISE POUR CHARIOT,2020,68,1174,254,0.77165354330708658,A
-31.84,Mat - 111157,052-0090 - BENNE DE REPRISE POUR CHARIOT,2021,68,1174,255,0.44705882352941179,A
0.0,Mat - 111157,052-0090 - BENNE DE REPRISE POUR CHARIOT,2022,68,1174,254,0.0,A
368.1,Mat - 128980,052-0090 - BENNE DE REPRISE POUR CHARIOT,2018,68,1144,252,0.88888888888888884,A
6.75,Mat - 128980,052-0090 - BENNE DE REPRISE POUR CHARIOT,2019,68,1144,251,0.68127490039840632,A
0.0,Mat - 128980,052-0090 - BENNE DE REPRISE POUR CHARIOT,2020,68,1144,254,0.13385826771653545,A
0.0,Mat - 128980,052-0090 - BENNE DE REPRISE POUR CHARIOT,2021,68,1144,255,0.054901960784313725,A
0.0,Mat - 128980,052-0090 - BENNE DE REPRISE POUR CHARIOT,2022,68,1144,254,0.047244094488188976,A
33.89,Mat - 148059,052-0090 - BENNE DE REPRISE POUR CHARIOT,2018,68,3216,252,0.71825396825396826,A
300.05,Mat - 148059,052-0090 - BENNE DE REPRISE POUR CHARIOT,2019,68,3216,251,0.4063745019920319,A
0.0,Mat - 148059,052-0090 - BENNE DE REPRISE POUR CHARIOT,2020,68,3216,251,0.88047808764940239,A
150.15,Mat - 148059,052-0090 - BENNE DE REPRISE POUR CHARIOT,2021,68,3216,255,0.30980392156862746,A
0.0,Mat - 148059,052-0090 - BENNE DE REPRISE POUR CHARIOT,2022,68,3216,254,0.0,A
14.2,Mat - 149240,052-0090 - BENNE DE REPRISE POUR CHARIOT,2018,68,1104,252,0.51190476190476186,A
332.44,Mat - 149240,052-0090 - BENNE DE REPRISE POUR CHARIOT,2019,68,1104,251,0.27490039840637448,A
4.0,Mat - 149240,052-0090 - BENNE DE REPRISE POUR CHARIOT,2020,68,1104,254,0.2874015748031496,A
83.0,Mat - 149240,052-0090 - BENNE DE REPRISE POUR CHARIOT,2021,68,1104,255,0.58431372549019611,A
0.0,Mat - 149240,052-0090 - BENNE DE REPRISE POUR CHARIOT,2022,68,1104,254,0.0,A
0.0,Mat - 165812,052-0090 - BENNE DE REPRISE POUR CHARIOT,2018,68,3217,252,1.0555555555555556,A
0.0,Mat - 165812,052-0090 - BENNE DE REPRISE POUR CHARIOT,2019,68,3217,251,0.087649402390438252,A
191.56,Mat - 165812,052-0090 - BENNE DE REPRISE POUR CHARIOT,2020,68,3217,254,0.16141732283464566,A
263.2,Mat - 165812,052-0090 - BENNE DE REPRISE POUR CHARIOT,2021,68,3217,255,0.53333333333333333,A
132.98,Mat - 165812,052-0090 - BENNE DE REPRISE POUR CHARIOT,2022,68,3217,254,0.14566929133858267,A
62.38,Mat - 165813,052-0090 - BENNE DE REPRISE POUR CHARIOT,2018,68,7016,252,0.27777777777777779,A
199.68,Mat - 165813,052-0090 - BENNE DE REPRISE POUR CHARIOT,2019,68,7016,251,0.38645418326693226,A
233.84,Mat - 165813,052-0090 - BENNE DE REPRISE POUR CHARIOT,2020,68,7016,254,0.23228346456692914,A
206.77,Mat - 165813,052-0090 - BENNE DE REPRISE POUR CHARIOT,2021,68,7016,255,0.50196078431372548,A
73.22,Mat - 165813,052-0090 - BENNE DE REPRISE POUR CHARIOT,2022,68,7016,254,0.12598425196850394,A
72.43,Mat - 168749,052-0090 - BENNE DE REPRISE POUR CHARIOT,2018,68,3245,252,0.80555555555555558,A
128.1,Mat - 168749,052-0090 - BENNE DE REPRISE POUR CHARIOT,2019,68,3245,251,0.78087649402390436,A
0.0,Mat - 168749,052-0090 - BENNE DE REPRISE POUR CHARIOT,2020,68,3245,254,0.88582677165354329,A
0.0,Mat - 168749,052-0090 - BENNE DE REPRISE POUR CHARIOT,2021,68,3245,255,0.70588235294117652,A
0.0,Mat - 168749,052-0090 - BENNE DE REPRISE POUR CHARIOT,2022,68,3245,254,0.87795275590551181,A
277.21,Mat - 147609,052-0090 - BENNE DE REPRISE POUR CHARIOT,2018,68,1104,252,0.623015873015873,A
154.81,Mat - 147609,052-0090 - BENNE DE REPRISE POUR CHARIOT,2019,68,1104,251,0.14342629482071714,A
61.98,Mat - 147609,052-0090 - BENNE DE REPRISE POUR CHARIOT,2020,68,1104,254,0.89370078740157477,A
0.0,Mat - 147609,052-0090 - BENNE DE REPRISE POUR CHARIOT,2021,68,1104,255,1.4,A
0.0,Mat - 147609,052-0090 - BENNE DE REPRISE POUR CHARIOT,2022,68,1104,254,0.87795275590551181,A
10586.5,Mat - 143422,049-0033 - NACELLE =<12M ELECTRIQUE,2018,68,6801,252,0.746031746031746,A
9676.77,Mat - 143422,049-0033 - NACELLE =<12M ELECTRIQUE,2019,68,6801,251,0.67330677290836649,A
5749.96,Mat - 143422,049-0033 - NACELLE =<12M ELECTRIQUE,2020,68,6801,254,0.43307086614173229,A
7774.3,Mat - 143422,049-0033 - NACELLE =<12M ELECTRIQUE,2021,68,6801,255,0.6705882352941176,A
6245.57,Mat - 143422,049-0033 - NACELLE =<12M ELECTRIQUE,2022,68,6801,254,0.53543307086614178,A
29325.0,Mat - 156227,049-0033 - NACELLE =<12M ELECTRIQUE,2018,68,1112,252,1.0357142857142858,A
29325.0,Mat - 156227,049-0033 - NACELLE =<12M ELECTRIQUE,2019,68,1112,251,1.0398406374501992,A
29325.0,Mat - 156227,049-0033 - NACELLE =<12M ELECTRIQUE,2020,68,1112,254,0.97244094488188981,A
29325.0,Mat - 156227,049-0033 - NACELLE =<12M ELECTRIQUE,2021,68,1112,255,0.94117647058823528,A
5535.78,Mat - 156227,049-0033 - NACELLE =<12M ELECTRIQUE,2022,68,1112,254,0.18503937007874016,A
9250.26,Mat - 156230,049-0033 - NACELLE =<12M ELECTRIQUE,2018,68,1128,252,0.63888888888888884,A
6755.85,Mat - 156230,049-0033 - NACELLE =<12M ELECTRIQUE,2019,68,1128,251,0.3147410358565737,A
8822.59,Mat - 156230,049-0033 - NACELLE =<12M ELECTRIQUE,2020,68,1128,254,0.51181102362204722,A
8145.25,Mat - 156230,049-0033 - NACELLE =<12M ELECTRIQUE,2021,68,1128,255,0.47843137254901963,A
12621.05,Mat - 156230,049-0033 - NACELLE =<12M ELECTRIQUE,2022,68,1128,254,0.83464566929133854,A
12655.3,Mat - 136247,052-0037 - CHARIOT TELESC. 14M,2018,68,1133,252,0.57539682539682535,A
15266.66,Mat - 136247,052-0037 - CHARIOT TELESC. 14M,2019,68,1133,251,0.68525896414342624,A
15057.69,Mat - 136247,052-0037 - CHARIOT TELESC. 14M,2020,68,1133,254,0.49212598425196852,A
21609.87,Mat - 136247,052-0037 - CHARIOT TELESC. 14M,2021,68,1133,255,0.76078431372549016,A
23050.15,Mat - 136247,052-0037 - CHARIOT TELESC. 14M,2022,68,1133,254,0.68503937007874016,A
14833.62,Mat - 160790,052-0024 - CHARIOT TELESC. =< 6M,2018,68,3245,252,0.79761904761904767,A
12386.95,Mat - 160790,052-0024 - CHARIOT TELESC. =< 6M,2019,68,3245,251,0.68127490039840632,A
12477.4,Mat - 160790,052-0024 - CHARIOT TELESC. =< 6M,2020,68,3245,254,0.60236220472440949,A
15073.2,Mat - 160790,052-0024 - CHARIOT TELESC. =< 6M,2021,68,3245,255,0.7803921568627451,A
12474.78,Mat - 160790,052-0024 - CHARIOT TELESC. =< 6M,2022,68,3245,254,0.6417322834645669,A
13726.15,Mat - 168394,052-0024 - CHARIOT TELESC. =< 6M,2018,68,6801,252,1.0674603174603174,A
12480.0,Mat - 168394,052-0024 - CHARIOT TELESC. =< 6M,2019,68,6801,251,0.83266932270916338,A
12688.85,Mat - 168394,052-0024 - CHARIOT TELESC. =< 6M,2020,68,6801,254,0.81889763779527558,A
15417.6,Mat - 168394,052-0024 - CHARIOT TELESC. =< 6M,2021,68,6801,255,0.984313725490196,A
3736.3,Mat - 168394,052-0024 - CHARIOT TELESC. =< 6M,2022,68,6801,259,0.17374517374517376,A
15789.75,Mat - 107182,052-0033 - CHARIOT TELESC. 12M,2018,68,3247,252,0.81349206349206349,A
14608.86,Mat - 107182,052-0033 - CHARIOT TELESC. 12M,2019,68,3247,251,0.71713147410358569,A
10144.25,Mat - 107182,052-0033 - CHARIOT TELESC. 12M,2020,68,3247,254,0.37007874015748032,A
17144.75,Mat - 107182,052-0033 - CHARIOT TELESC. 12M,2021,68,3247,255,0.62352941176470589,A
15748.65,Mat - 107182,052-0033 - CHARIOT TELESC. 12M,2022,68,3247,254,0.64960629921259838,A
9756.15,Mat - 107186,052-0033 - CHARIOT TELESC. 12M,2018,68,6801,252,0.30952380952380953,A
14487.75,Mat - 107186,052-0033 - CHARIOT TELESC. 12M,2019,68,6801,251,0.59362549800796816,A
9806.93,Mat - 107186,052-0033 - CHARIOT TELESC. 12M,2020,68,6801,254,0.69291338582677164,A
9622.49,Mat - 107186,052-0033 - CHARIOT TELESC. 12M,2021,68,6801,255,0.43137254901960786,A
16661.42,Mat - 107186,052-0033 - CHARIOT TELESC. 12M,2022,68,6801,254,0.46062992125984253,A
16676.83,Mat - 161283,052-0039 - CHARIOT TELESC.>= 17M,2018,68,6801,252,0.55555555555555558,A
19748.42,Mat - 161283,052-0039 - CHARIOT TELESC.>= 17M,2019,68,6801,251,0.82071713147410363,A
24852.5,Mat - 161283,052-0039 - CHARIOT TELESC.>= 17M,2020,68,6801,254,0.68110236220472442,A
25516.27,Mat - 161283,052-0039 - CHARIOT TELESC.>= 17M,2021,68,6801,255,0.76078431372549016,A
14387.77,Mat - 161283,052-0039 - CHARIOT TELESC.>= 17M,2022,68,6801,254,0.468503937007874,A
7181.79,Mat - 161696,057-0004 - MINIPELLE 2.3T A 2.8T,2018,68,7437,252,0.2857142857142857,A
6804.0,Mat - 161696,057-0004 - MINIPELLE 2.3T A 2.8T,2019,68,7437,251,0.350597609561753,A
11599.64,Mat - 161696,057-0004 - MINIPELLE 2.3T A 2.8T,2020,68,7437,254,0.44094488188976377,A
6200.66,Mat - 161696,057-0004 - MINIPELLE 2.3T A 2.8T,2021,68,7437,255,0.29411764705882354,A
7666.91,Mat - 161696,057-0004 - MINIPELLE 2.3T A 2.8T,2022,68,7437,254,0.39370078740157483,A
8746.48,Mat - 161816,057-0005 - MINIPELLE 3.5T,2018,68,1128,239,0.31380753138075312,A
9986.69,Mat - 161816,057-0005 - MINIPELLE 3.5T,2019,68,1128,251,0.4302788844621514,A
5236.9,Mat - 161816,057-0005 - MINIPELLE 3.5T,2020,68,1128,254,0.19685039370078741,A
10689.45,Mat - 161816,057-0005 - MINIPELLE 3.5T,2021,68,1128,255,0.3843137254901961,A
9677.32,Mat - 161816,057-0005 - MINIPELLE 3.5T,2022,68,1128,254,0.34645669291338582,A
14848.96,Mat - 159346,057-0007 - MINIPELLE 5T À 6T,2018,68,1121,252,0.55952380952380953,A
15191.55,Mat - 159346,057-0007 - MINIPELLE 5T À 6T,2019,68,1121,251,0.60557768924302791,A
22499.87,Mat - 159346,057-0007 - MINIPELLE 5T À 6T,2020,68,1121,254,0.71259842519685035,A
12882.23,Mat - 159346,057-0007 - MINIPELLE 5T À 6T,2021,68,1121,255,0.40784313725490196,A
11323.59,Mat - 159346,057-0007 - MINIPELLE 5T À 6T,2022,68,1121,254,0.452755905511811,A
16716.04,Mat - 161838,057-0008 - MINIPELLE 7.5T À 8.5T,2018,68,3242,252,0.40476190476190477,A
17243.35,Mat - 161838,057-0008 - MINIPELLE 7.5T À 8.5T,2019,68,3242,251,0.47808764940239046,A
16958.95,Mat - 161838,057-0008 - MINIPELLE 7.5T À 8.5T,2020,68,3242,254,0.44094488188976377,A
20203.36,Mat - 161838,057-0008 - MINIPELLE 7.5T À 8.5T,2021,68,3242,255,0.615686274509804,A
13233.16,Mat - 161838,057-0008 - MINIPELLE 7.5T À 8.5T,2022,68,3242,254,0.35039370078740156,A
329.46,Mat - 106949,052-0090 - BENNE DE REPRISE POUR CHARIOT,2018,68,1112,252,0.28968253968253971,A
44.83,Mat - 106949,052-0090 - BENNE DE REPRISE POUR CHARIOT,2019,68,1112,251,0.29880478087649404,A
0.0,Mat - 106949,052-0090 - BENNE DE REPRISE POUR CHARIOT,2020,68,1112,254,0.75984251968503935,A
0.0,Mat - 106949,052-0090 - BENNE DE REPRISE POUR CHARIOT,2021,68,1112,255,0.32941176470588235,A
44.82,Mat - 106949,052-0090 - BENNE DE REPRISE POUR CHARIOT,2022,68,1112,254,0.031496062992125984,A
6909.0,Mat - 130012,057-0004 - MINIPELLE 2.3T A 2.8T,2018,68,6801,252,0.376984126984127,A
7389.5,Mat - 130012,057-0004 - MINIPELLE 2.3T A 2.8T,2019,68,6801,251,0.39442231075697209,A
10631.8,Mat - 130012,057-0004 - MINIPELLE 2.3T A 2.8T,2020,68,6801,254,0.5,A
6938.49,Mat - 130012,057-0004 - MINIPELLE 2.3T A 2.8T,2021,68,6801,255,0.28627450980392155,A
14981.23,Mat - 130012,057-0004 - MINIPELLE 2.3T A 2.8T,2022,68,6801,254,0.54330708661417326,A
8730.85,Mat - 164065,049-0041 - NACELLE 16M ARTICULEE DIESEL,2022,68,1127,214,1.191588785046729,A
14252.55,Mat - 107520,049-0041 - NACELLE 16M ARTICULEE DIESEL,2018,68,6801,252,0.49603174603174605,A
12996.96,Mat - 107520,049-0041 - NACELLE 16M ARTICULEE DIESEL,2019,68,6801,251,0.65338645418326691,A
14317.42,Mat - 107520,049-0041 - NACELLE 16M ARTICULEE DIESEL,2020,68,6801,254,0.6692913385826772,A
15018.67,Mat - 107520,049-0041 - NACELLE 16M ARTICULEE DIESEL,2021,68,6801,255,0.63921568627450975,A
11560.52,Mat - 107520,049-0041 - NACELLE 16M ARTICULEE DIESEL,2022,68,6801,254,0.48818897637795278,A
14968.2,Mat - 112628,052-0039 - CHARIOT TELESC.>= 17M,2018,68,3242,252,0.53174603174603174,A
5629.3,Mat - 112628,052-0039 - CHARIOT TELESC.>= 17M,2019,68,3242,251,0.1394422310756972,A
16176.61,Mat - 112628,052-0039 - CHARIOT TELESC.>= 17M,2020,68,3242,254,0.610236220472441,A
23652.49,Mat - 112628,052-0039 - CHARIOT TELESC.>= 17M,2021,68,3242,255,0.71764705882352942,A
9988.0,Mat - 112628,052-0039 - CHARIOT TELESC.>= 17M,2022,68,3242,254,0.38188976377952755,A
20665.15,Mat - 165400,049-0018 - NACELLE 20M SUR VL,2018,68,7018,252,0.45634920634920634,A
30744.11,Mat - 165400,049-0018 - NACELLE 20M SUR VL,2019,68,7018,251,0.56175298804780871,A
21032.03,Mat - 165400,049-0018 - NACELLE 20M SUR VL,2020,68,7018,254,0.594488188976378,A
26653.61,Mat - 165400,049-0018 - NACELLE 20M SUR VL,2021,68,7018,255,0.57647058823529407,A
22991.82,Mat - 165400,049-0018 - NACELLE 20M SUR VL,2022,68,7018,254,0.51181102362204722,A
35547.89,Mat - 106387,049-0019 - NACELLE 22M SUR VL,2018,68,6801,252,0.66666666666666663,A
15896.6,Mat - 106387,049-0019 - NACELLE 22M SUR VL,2019,68,6801,251,0.2788844621513944,A
10368.4,Mat - 106387,049-0019 - NACELLE 22M SUR VL,2020,68,6801,254,0.18110236220472442,A
0.0,Mat - 106387,049-0019 - NACELLE 22M SUR VL,2021,68,6801,258,0.0,A
0.0,Mat - 106387,049-0019 - NACELLE 22M SUR VL,2022,68,6801,260,0.0,A
0.0,Mat - 129766,052-0090 - BENNE DE REPRISE POUR CHARIOT,2018,68,730,252,0.083333333333333329,A
0.0,Mat - 129766,052-0090 - BENNE DE REPRISE POUR CHARIOT,2019,68,730,251,0.027888446215139442,A
59.14,Mat - 129766,052-0090 - BENNE DE REPRISE POUR CHARIOT,2020,68,730,254,0.30314960629921262,A
0.0,Mat - 129766,052-0090 - BENNE DE REPRISE POUR CHARIOT,2021,68,730,255,0.18431372549019609,A
0.0,Mat - 129766,052-0090 - BENNE DE REPRISE POUR CHARIOT,2022,68,730,238,0.0,A
18789.7,Mat - 127423,049-0016 - NACELLE 16M SUR VL,2018,68,7437,252,0.60317460317460314,A
12038.18,Mat - 127423,049-0016 - NACELLE 16M SUR VL,2019,68,7437,251,0.34262948207171312,A
12751.42,Mat - 127423,049-0016 - NACELLE 16M SUR VL,2020,68,7437,254,0.39763779527559057,A
13267.0,Mat - 127423,049-0016 - NACELLE 16M SUR VL,2021,68,7437,255,0.58431372549019611,A
13069.36,Mat - 127423,049-0016 - NACELLE 16M SUR VL,2022,68,7437,254,0.44488188976377951,A
96.0,Mat - 107181,052-0090 - BENNE DE REPRISE POUR CHARIOT,2018,68,1121,252,0.15873015873015872,A
293.16,Mat - 107181,052-0090 - BENNE DE REPRISE POUR CHARIOT,2019,68,1121,251,0.34262948207171312,A
18.48,Mat - 107181,052-0090 - BENNE DE REPRISE POUR CHARIOT,2020,68,1121,254,0.45669291338582679,A
191.25,Mat - 107181,052-0090 - BENNE DE REPRISE POUR CHARIOT,2021,68,1121,255,0.41568627450980394,A
303.66,Mat - 107181,052-0090 - BENNE DE REPRISE POUR CHARIOT,2022,68,1121,254,0.20866141732283464,A
213.22,Mat - 107183,052-0090 - BENNE DE REPRISE POUR CHARIOT,2018,68,3247,252,0.20634920634920634,A
84.06,Mat - 107183,052-0090 - BENNE DE REPRISE POUR CHARIOT,2019,68,3247,251,0.31872509960159362,A
0.0,Mat - 107183,052-0090 - BENNE DE REPRISE POUR CHARIOT,2020,68,3247,254,0.1141732283464567,A
0.0,Mat - 107183,052-0090 - BENNE DE REPRISE POUR CHARIOT,2021,68,3247,255,0.14509803921568629,A
163.52,Mat - 107183,052-0090 - BENNE DE REPRISE POUR CHARIOT,2022,68,3247,254,0.27952755905511811,A
198.3,Mat - 107185,052-0090 - BENNE DE REPRISE POUR CHARIOT,2018,68,7010,252,0.22619047619047619,A
55.02,Mat - 107185,052-0090 - BENNE DE REPRISE POUR CHARIOT,2019,68,7010,251,0.545816733067729,A
54.88,Mat - 107185,052-0090 - BENNE DE REPRISE POUR CHARIOT,2020,68,7010,254,0.35826771653543305,A
0.0,Mat - 107185,052-0090 - BENNE DE REPRISE POUR CHARIOT,2021,68,7010,255,0.73333333333333328,A
0.0,Mat - 107185,052-0090 - BENNE DE REPRISE POUR CHARIOT,2022,68,7010,254,0.24803149606299213,A
38.96,Mat - 107189,052-0090 - BENNE DE REPRISE POUR CHARIOT,2018,68,7013,252,0.17857142857142858,A
46.0,Mat - 107189,052-0090 - BENNE DE REPRISE POUR CHARIOT,2019,68,7013,251,0.099601593625498,A
94.1,Mat - 107189,052-0090 - BENNE DE REPRISE POUR CHARIOT,2020,68,7013,254,0.22440944881889763,A
207.89,Mat - 107189,052-0090 - BENNE DE REPRISE POUR CHARIOT,2021,68,7013,255,0.5490196078431373,A
17.76,Mat - 107189,052-0090 - BENNE DE REPRISE POUR CHARIOT,2022,68,7013,254,0.015748031496062992,A
103.88,Mat - 107467,052-0090 - BENNE DE REPRISE POUR CHARIOT,2018,68,3217,252,0.17460317460317459,A
7.49,Mat - 107467,052-0090 - BENNE DE REPRISE POUR CHARIOT,2019,68,3217,251,0.3147410358565737,A
0.0,Mat - 107467,052-0090 - BENNE DE REPRISE POUR CHARIOT,2020,68,3217,254,0.48818897637795278,A
47.3,Mat - 107467,052-0090 - BENNE DE REPRISE POUR CHARIOT,2021,68,3217,255,0.32941176470588235,A
0.0,Mat - 107467,052-0090 - BENNE DE REPRISE POUR CHARIOT,2022,68,3217,254,0.29527559055118108,A
0.0,Mat - 136189,052-0090 - BENNE DE REPRISE POUR CHARIOT,2018,68,7019,252,0.0,A
152.0,Mat - 136189,052-0090 - BENNE DE REPRISE POUR CHARIOT,2019,68,7019,251,0.41832669322709165,A
171.0,Mat - 136189,052-0090 - BENNE DE REPRISE POUR CHARIOT,2020,68,7019,254,0.25590551181102361,A
215.92,Mat - 136189,052-0090 - BENNE DE REPRISE POUR CHARIOT,2021,68,7019,255,0.53725490196078429,A
0.0,Mat - 136189,052-0090 - BENNE DE REPRISE POUR CHARIOT,2022,68,7019,254,0.0984251968503937,A
5350.42,Mat - 107751,049-0070 - PLATEFORME 8M AUTOM. ELECT.,2018,68,1123,252,0.3888888888888889,A
3644.55,Mat - 107751,049-0070 - PLATEFORME 8M AUTOM. ELECT.,2019,68,1123,251,0.31872509960159362,A
4336.9,Mat - 107751,049-0070 - PLATEFORME 8M AUTOM. ELECT.,2020,68,1123,254,0.49606299212598426,A
4498.8,Mat - 107751,049-0070 - PLATEFORME 8M AUTOM. ELECT.,2021,68,1123,255,0.90588235294117647,A
5961.64,Mat - 107751,049-0070 - PLATEFORME 8M AUTOM. ELECT.,2022,68,1123,254,0.72047244094488194,A
5192.15,Mat - 108674,049-0070 - PLATEFORME 8M AUTOM. ELECT.,2018,68,3245,252,0.44444444444444442,A
3664.07,Mat - 108674,049-0070 - PLATEFORME 8M AUTOM. ELECT.,2019,68,3245,251,0.42629482071713148,A
2815.8,Mat - 108674,049-0070 - PLATEFORME 8M AUTOM. ELECT.,2020,68,3245,254,0.41732283464566927,A
3554.7,Mat - 108674,049-0070 - PLATEFORME 8M AUTOM. ELECT.,2021,68,3245,255,0.40784313725490196,A
3286.08,Mat - 108674,049-0070 - PLATEFORME 8M AUTOM. ELECT.,2022,68,3245,254,0.2874015748031496,A
230.84,Mat - 104828,052-0090 - BENNE DE REPRISE POUR CHARIOT,2018,68,1144,252,0.20238095238095238,A
15.48,Mat - 104828,052-0090 - BENNE DE REPRISE POUR CHARIOT,2019,68,1144,251,0.011952191235059761,A
0.0,Mat - 104828,052-0090 - BENNE DE REPRISE POUR CHARIOT,2020,68,1144,254,0.01968503937007874,A
0.0,Mat - 104828,052-0090 - BENNE DE REPRISE POUR CHARIOT,2021,68,1144,255,0.47450980392156861,A
0.0,Mat - 104828,052-0090 - BENNE DE REPRISE POUR CHARIOT,2022,68,1144,254,0.0,A
80.2,Mat - 107179,052-0090 - BENNE DE REPRISE POUR CHARIOT,2018,68,1123,252,0.067460317460317457,A
0.0,Mat - 107179,052-0090 - BENNE DE REPRISE POUR CHARIOT,2019,68,1123,251,0.25896414342629481,A
0.0,Mat - 107179,052-0090 - BENNE DE REPRISE POUR CHARIOT,2020,68,1123,254,0.29921259842519687,A
183.8,Mat - 107179,052-0090 - BENNE DE REPRISE POUR CHARIOT,2021,68,1123,255,0.20392156862745098,A
8.84,Mat - 107179,052-0090 - BENNE DE REPRISE POUR CHARIOT,2022,68,1123,254,0.19291338582677164,A
16.62,Mat - 107187,052-0090 - BENNE DE REPRISE POUR CHARIOT,2018,68,730,252,0.29761904761904762,A
27.07,Mat - 107187,052-0090 - BENNE DE REPRISE POUR CHARIOT,2019,68,730,251,0.11155378486055777,A
31.5,Mat - 107187,052-0090 - BENNE DE REPRISE POUR CHARIOT,2020,68,730,254,0.027559055118110236,A
159.9,Mat - 107187,052-0090 - BENNE DE REPRISE POUR CHARIOT,2021,68,730,255,0.15686274509803921,A
40.69,Mat - 107187,052-0090 - BENNE DE REPRISE POUR CHARIOT,2022,68,730,249,0.0321285140562249,A
36.0,Mat - 107195,052-0090 - BENNE DE REPRISE POUR CHARIOT,2018,68,1141,252,0.15079365079365079,A
0.0,Mat - 107195,052-0090 - BENNE DE REPRISE POUR CHARIOT,2019,68,1141,251,0.095617529880478086,A
119.13,Mat - 107195,052-0090 - BENNE DE REPRISE POUR CHARIOT,2020,68,1141,254,0.1141732283464567,A
60.06,Mat - 107195,052-0090 - BENNE DE REPRISE POUR CHARIOT,2021,68,1141,255,0.14509803921568629,A
0.0,Mat - 107195,052-0090 - BENNE DE REPRISE POUR CHARIOT,2022,68,1141,254,0.074803149606299218,A
39.36,Mat - 127410,052-0090 - BENNE DE REPRISE POUR CHARIOT,2018,68,730,252,0.39285714285714285,A
204.53,Mat - 127410,052-0090 - BENNE DE REPRISE POUR CHARIOT,2019,68,730,251,1.0358565737051793,A
267.83,Mat - 127410,052-0090 - BENNE DE REPRISE POUR CHARIOT,2020,68,730,254,0.90944881889763785,A
4.8,Mat - 127410,052-0090 - BENNE DE REPRISE POUR CHARIOT,2021,68,730,255,0.0392156862745098,A
247.59,Mat - 127410,052-0090 - BENNE DE REPRISE POUR CHARIOT,2022,68,730,254,0.13385826771653545,A
107.3,Mat - 127413,052-0090 - BENNE DE REPRISE POUR CHARIOT,2018,68,7018,252,0.25,A
182.5,Mat - 127413,052-0090 - BENNE DE REPRISE POUR CHARIOT,2019,68,7018,251,0.8127490039840638,A
107.04,Mat - 127413,052-0090 - BENNE DE REPRISE POUR CHARIOT,2020,68,7018,254,0.086614173228346455,A
37.44,Mat - 127413,052-0090 - BENNE DE REPRISE POUR CHARIOT,2021,68,7018,255,0.035294117647058823,A
923.65,Mat - 127413,052-0090 - BENNE DE REPRISE POUR CHARIOT,2022,68,7018,254,0.15354330708661418,A
0.0,Mat - 146528,052-0090 - BENNE DE REPRISE POUR CHARIOT,2018,68,1112,252,0.21428571428571427,A
38.52,Mat - 146528,052-0090 - BENNE DE REPRISE POUR CHARIOT,2019,68,1112,251,0.14741035856573706,A
553.93,Mat - 146528,052-0090 - BENNE DE REPRISE POUR CHARIOT,2020,68,1112,254,0.42913385826771655,A
12.3,Mat - 146528,052-0090 - BENNE DE REPRISE POUR CHARIOT,2021,68,1112,255,0.031372549019607843,A
14.93,Mat - 146528,052-0090 - BENNE DE REPRISE POUR CHARIOT,2022,68,1112,254,0.2283464566929134,A
8341.72,Mat - 159918,057-0001 - MINIPELLE <1T,2018,68,734,252,0.32539682539682541,A
7178.04,Mat - 159918,057-0001 - MINIPELLE <1T,2019,68,734,251,0.32669322709163345,A
7767.21,Mat - 159918,057-0001 - MINIPELLE <1T,2020,68,734,254,0.32283464566929132,A
5705.5,Mat - 159918,057-0001 - MINIPELLE <1T,2021,68,734,255,0.28235294117647058,A
6726.83,Mat - 159918,057-0001 - MINIPELLE <1T,2022,68,734,254,0.25196850393700787,A
2728.3,Mat - 161254,057-0001 - MINIPELLE <1T,2018,68,7357,252,0.12301587301587301,A
5978.6,Mat - 161254,057-0001 - MINIPELLE <1T,2019,68,7357,251,0.30677290836653387,A
4095.3,Mat - 161254,057-0001 - MINIPELLE <1T,2020,68,7357,254,0.18503937007874016,A
5089.6,Mat - 161254,057-0001 - MINIPELLE <1T,2021,68,7357,255,0.28235294117647058,A
3010.33,Mat - 161254,057-0001 - MINIPELLE <1T,2022,68,7357,254,0.13779527559055119,A
18253.72,Mat - 165626,057-0005 - MINIPELLE 3.5T,2018,68,6801,252,0.67460317460317465,A
13560.04,Mat - 165626,057-0005 - MINIPELLE 3.5T,2019,68,6801,251,0.53784860557768921,A
15170.6,Mat - 165626,057-0005 - MINIPELLE 3.5T,2020,68,6801,254,0.547244094488189,A
9980.04,Mat - 165626,057-0005 - MINIPELLE 3.5T,2021,68,6801,255,0.38823529411764707,A
5428.43,Mat - 165626,057-0005 - MINIPELLE 3.5T,2022,68,6801,254,0.22440944881889763,A
10669.95,Mat - 129558,049-0033 - NACELLE =<12M ELECTRIQUE,2018,68,3247,252,0.746031746031746,A
6866.3,Mat - 129558,049-0033 - NACELLE =<12M ELECTRIQUE,2019,68,3247,251,0.45816733067729082,A
6032.95,Mat - 129558,049-0033 - NACELLE =<12M ELECTRIQUE,2020,68,3247,254,0.33070866141732286,A
9125.09,Mat - 129558,049-0033 - NACELLE =<12M ELECTRIQUE,2021,68,3247,255,0.69019607843137254,A
8906.97,Mat - 129558,049-0033 - NACELLE =<12M ELECTRIQUE,2022,68,3247,254,0.59842519685039375,A
5390.11,Mat - 164459,049-0074 - PLATEFORME 10M AUTOM. ELECT.,2022,68,7018,214,0.50934579439252337,A
48.75,Mat - 156173,052-0090 - BENNE DE REPRISE POUR CHARIOT,2018,68,1141,252,0.39285714285714285,A
225.0,Mat - 156173,052-0090 - BENNE DE REPRISE POUR CHARIOT,2019,68,1141,251,0.69322709163346619,A
0.0,Mat - 156173,052-0090 - BENNE DE REPRISE POUR CHARIOT,2020,68,1141,254,0.25984251968503935,A
0.0,Mat - 156173,052-0090 - BENNE DE REPRISE POUR CHARIOT,2021,68,1141,255,0.84705882352941175,A
286.65,Mat - 156173,052-0090 - BENNE DE REPRISE POUR CHARIOT,2022,68,1141,254,0.32677165354330706,A
3020.85,Mat - 127471,049-0070 - PLATEFORME 8M AUTOM. ELECT.,2018,68,1123,252,0.26984126984126983,A
4143.19,Mat - 127471,049-0070 - PLATEFORME 8M AUTOM. ELECT.,2019,68,1123,251,0.36254980079681276,A
3135.8,Mat - 127471,049-0070 - PLATEFORME 8M AUTOM. ELECT.,2020,68,1123,254,0.41732283464566927,A
2366.5,Mat - 127471,049-0070 - PLATEFORME 8M AUTOM. ELECT.,2021,68,1123,255,0.25098039215686274,A
4456.08,Mat - 127471,049-0070 - PLATEFORME 8M AUTOM. ELECT.,2022,68,1123,254,0.74015748031496065,A
5162.35,Mat - 136174,049-0070 - PLATEFORME 8M AUTOM. ELECT.,2018,68,1104,252,0.44444444444444442,A
6227.57,Mat - 136174,049-0070 - PLATEFORME 8M AUTOM. ELECT.,2019,68,1104,251,0.76494023904382469,A
3744.6,Mat - 136174,049-0070 - PLATEFORME 8M AUTOM. ELECT.,2020,68,1104,254,0.38582677165354329,A
3562.5,Mat - 136174,049-0070 - PLATEFORME 8M AUTOM. ELECT.,2021,68,1104,255,0.69803921568627447,A
4787.72,Mat - 136174,049-0070 - PLATEFORME 8M AUTOM. ELECT.,2022,68,1104,254,0.468503937007874,A
6346.4,Mat - 120306,049-0074 - PLATEFORME 10M AUTOM. ELECT.,2018,68,7435,252,0.42063492063492064,A
4595.35,Mat - 120306,049-0074 - PLATEFORME 10M AUTOM. ELECT.,2019,68,7435,251,0.36653386454183268,A
4933.9,Mat - 120306,049-0074 - PLATEFORME 10M AUTOM. ELECT.,2020,68,7435,254,0.38582677165354329,A
6140.0,Mat - 120306,049-0074 - PLATEFORME 10M AUTOM. ELECT.,2021,68,7435,255,0.53333333333333333,A
6166.78,Mat - 120306,049-0074 - PLATEFORME 10M AUTOM. ELECT.,2022,68,7435,254,0.62992125984251968,A
5355.05,Mat - 127469,049-0074 - PLATEFORME 10M AUTOM. ELECT.,2018,68,1137,252,0.44841269841269843,A
5518.1,Mat - 127469,049-0074 - PLATEFORME 10M AUTOM. ELECT.,2019,68,1137,251,0.50996015936254979,A
2913.6,Mat - 127469,049-0074 - PLATEFORME 10M AUTOM. ELECT.,2020,68,1137,254,0.39763779527559057,A
4187.5,Mat - 127469,049-0074 - PLATEFORME 10M AUTOM. ELECT.,2021,68,1137,255,0.33333333333333331,A
569.16,Mat - 127469,049-0074 - PLATEFORME 10M AUTOM. ELECT.,2022,68,1137,254,0.066929133858267723,A
7649.64,Mat - 120315,049-0007 - NACELLE 10M A MAT VERTICAL ELEC.,2018,68,1116,252,0.47619047619047616,A
7353.82,Mat - 120315,049-0007 - NACELLE 10M A MAT VERTICAL ELEC.,2019,68,1116,251,0.43824701195219123,A
8802.37,Mat - 120315,049-0007 - NACELLE 10M A MAT VERTICAL ELEC.,2020,68,1116,254,0.52755905511811019,A
7237.2,Mat - 120315,049-0007 - NACELLE 10M A MAT VERTICAL ELEC.,2021,68,1116,255,0.49411764705882355,A
6710.8,Mat - 120315,049-0007 - NACELLE 10M A MAT VERTICAL ELEC.,2022,68,1116,254,0.40944881889763779,A
16907.4,Mat - 107755,052-0033 - CHARIOT TELESC. 12M,2018,68,1123,252,0.50793650793650791,A
16920.85,Mat - 107755,052-0033 - CHARIOT TELESC. 12M,2019,68,1123,251,0.61354581673306774,A
10820.94,Mat - 107755,052-0033 - CHARIOT TELESC. 12M,2020,68,1123,254,0.75196850393700787,A
13743.87,Mat - 107755,052-0033 - CHARIOT TELESC. 12M,2021,68,1123,255,0.47843137254901963,A
18003.38,Mat - 107755,052-0033 - CHARIOT TELESC. 12M,2022,68,1123,274,1.0364963503649636,A
100.98,Mat - 136308,052-0090 - BENNE DE REPRISE POUR CHARIOT,2018,68,1120,252,0.66666666666666663,A
112.26,Mat - 136308,052-0090 - BENNE DE REPRISE POUR CHARIOT,2019,68,1120,251,0.12350597609561753,A
80.21,Mat - 136308,052-0090 - BENNE DE REPRISE POUR CHARIOT,2020,68,1120,254,0.562992125984252,A
551.3,Mat - 136308,052-0090 - BENNE DE REPRISE POUR CHARIOT,2021,68,1120,255,0.45490196078431372,A
14.33,Mat - 136308,052-0090 - BENNE DE REPRISE POUR CHARIOT,2022,68,1120,254,0.49212598425196852,A
12947.0,Mat - 156223,049-0040 - NACELLE 16M BI-ENERGIE,2018,68,7357,252,0.95238095238095233,A
7214.4,Mat - 156223,049-0040 - NACELLE 16M BI-ENERGIE,2019,68,7357,251,0.35856573705179284,A
8285.0,Mat - 156223,049-0040 - NACELLE 16M BI-ENERGIE,2020,68,7357,254,0.76377952755905509,A
17775.8,Mat - 156223,049-0040 - NACELLE 16M BI-ENERGIE,2021,68,7357,255,0.76470588235294112,A
4553.39,Mat - 156223,049-0040 - NACELLE 16M BI-ENERGIE,2022,68,7357,254,0.20866141732283464,A
39.63,Mat - 104138,052-0090 - BENNE DE REPRISE POUR CHARIOT,2018,68,1144,252,0.25793650793650796,A
365.67,Mat - 104138,052-0090 - BENNE DE REPRISE POUR CHARIOT,2019,68,1144,251,0.64143426294820716,A
208.0,Mat - 104138,052-0090 - BENNE DE REPRISE POUR CHARIOT,2020,68,1144,254,0.50393700787401574,A
0.0,Mat - 104138,052-0090 - BENNE DE REPRISE POUR CHARIOT,2021,68,1144,255,0.47058823529411764,A
536.09,Mat - 104138,052-0090 - BENNE DE REPRISE POUR CHARIOT,2022,68,1144,254,0.38582677165354329,A
39.89,Mat - 112629,052-0090 - BENNE DE REPRISE POUR CHARIOT,2018,68,3242,252,0.091269841269841265,A
41.36,Mat - 112629,052-0090 - BENNE DE REPRISE POUR CHARIOT,2019,68,3242,251,0.031872509960159362,A
0.0,Mat - 112629,052-0090 - BENNE DE REPRISE POUR CHARIOT,2020,68,3242,254,0.49606299212598426,A
32.02,Mat - 112629,052-0090 - BENNE DE REPRISE POUR CHARIOT,2021,68,3242,255,0.61960784313725492,A
0.0,Mat - 112629,052-0090 - BENNE DE REPRISE POUR CHARIOT,2022,68,3242,254,0.2874015748031496,A
0.0,Mat - 107844,052-0090 - BENNE DE REPRISE POUR CHARIOT,2018,68,7019,252,1.0357142857142858,A
95.12,Mat - 107844,052-0090 - BENNE DE REPRISE POUR CHARIOT,2019,68,7019,251,0.74103585657370519,A
202.76,Mat - 107844,052-0090 - BENNE DE REPRISE POUR CHARIOT,2020,68,7019,254,0.92125984251968507,A
82.0,Mat - 107844,052-0090 - BENNE DE REPRISE POUR CHARIOT,2021,68,7019,255,0.98039215686274506,A
63.0,Mat - 107844,052-0090 - BENNE DE REPRISE POUR CHARIOT,2022,68,7019,254,0.63779527559055116,A
13.2,Mat - 112518,052-0090 - BENNE DE REPRISE POUR CHARIOT,2018,68,7016,252,0.63888888888888884,A
4.6,Mat - 112518,052-0090 - BENNE DE REPRISE POUR CHARIOT,2019,68,7016,251,0.60557768924302791,A
0.0,Mat - 112518,052-0090 - BENNE DE REPRISE POUR CHARIOT,2020,68,7016,254,0.73622047244094491,A
189.8,Mat - 112518,052-0090 - BENNE DE REPRISE POUR CHARIOT,2021,68,7016,255,0.31764705882352939,A
213.92,Mat - 112518,052-0090 - BENNE DE REPRISE POUR CHARIOT,2022,68,7016,254,1.0511811023622046,A
0.0,Mat - 105814,052-0090 - BENNE DE REPRISE POUR CHARIOT,2018,68,1137,252,0.0079365079365079361,A
40.0,Mat - 105814,052-0090 - BENNE DE REPRISE POUR CHARIOT,2019,68,1137,251,0.063745019920318724,A
76.0,Mat - 105814,052-0090 - BENNE DE REPRISE POUR CHARIOT,2020,68,1137,254,0.13385826771653545,A
0.0,Mat - 105814,052-0090 - BENNE DE REPRISE POUR CHARIOT,2021,68,1137,255,0.062745098039215685,A
0.0,Mat - 105814,052-0090 - BENNE DE REPRISE POUR CHARIOT,2022,68,1137,254,0.55511811023622049,A
148.06,Mat - 156175,052-0090 - BENNE DE REPRISE POUR CHARIOT,2018,68,1128,252,0.22619047619047619,A
0.0,Mat - 156175,052-0090 - BENNE DE REPRISE POUR CHARIOT,2019,68,1128,251,0.15537848605577689,A
93.47,Mat - 156175,052-0090 - BENNE DE REPRISE POUR CHARIOT,2020,68,1128,254,0.22047244094488189,A
89.76,Mat - 156175,052-0090 - BENNE DE REPRISE POUR CHARIOT,2021,68,1128,255,0.21176470588235294,A
0.0,Mat - 156175,052-0090 - BENNE DE REPRISE POUR CHARIOT,2022,68,1128,254,0.0,A
0.0,Mat - 110182,052-0090 - BENNE DE REPRISE POUR CHARIOT,2018,68,1120,252,0.0,A
300.0,Mat - 110182,052-0090 - BENNE DE REPRISE POUR CHARIOT,2019,68,1120,251,0.17131474103585656,A
-174.5,Mat - 110182,052-0090 - BENNE DE REPRISE POUR CHARIOT,2020,68,1120,254,0.51181102362204722,A
278.2,Mat - 110182,052-0090 - BENNE DE REPRISE POUR CHARIOT,2021,68,1120,255,0.52156862745098043,A
0.0,Mat - 110182,052-0090 - BENNE DE REPRISE POUR CHARIOT,2022,68,1120,254,0.12204724409448819,A
0.0,Mat - 160795,052-0090 - BENNE DE REPRISE POUR CHARIOT,2018,68,7356,252,0.11904761904761904,A
176.99,Mat - 160795,052-0090 - BENNE DE REPRISE POUR CHARIOT,2019,68,7356,251,0.29482071713147412,A
65.64,Mat - 160795,052-0090 - BENNE DE REPRISE POUR CHARIOT,2020,68,7356,254,0.086614173228346455,A
0.0,Mat - 160795,052-0090 - BENNE DE REPRISE POUR CHARIOT,2021,68,7356,255,0.2196078431372549,A
66.69,Mat - 160795,052-0090 - BENNE DE REPRISE POUR CHARIOT,2022,68,7356,250,0.088,A
15499.92,Mat - 159421,049-0058 - NACELLE <=15M BI-ENERGIE S/REM.,2018,68,1112,252,1.4484126984126984,A
15499.92,Mat - 159421,049-0058 - NACELLE <=15M BI-ENERGIE S/REM.,2019,68,1112,251,1.454183266932271,A
21841.28,Mat - 159421,049-0058 - NACELLE <=15M BI-ENERGIE S/REM.,2020,68,1112,254,1.2637795275590551,A
34524.0,Mat - 159421,049-0058 - NACELLE <=15M BI-ENERGIE S/REM.,2021,68,1112,255,0.94117647058823528,A
6014.55,Mat - 159421,049-0058 - NACELLE <=15M BI-ENERGIE S/REM.,2022,68,1112,254,0.16535433070866143,A